+--------+----------+-------------------------------+------------------------------+-------------------------------------------------------------------+---------------------------------------------------------+
| Domain | Method   | URI                           | Name                         | Action                                                            | Middleware                                              |
+--------+----------+-------------------------------+------------------------------+-------------------------------------------------------------------+---------------------------------------------------------+
|        | GET|HEAD | /                             | admin.index                  | App\Modules\User\Controllers\UserController@index                 | App\Http\Middleware\EncryptCookies                      |
|        |          |                               |                              |                                                                   | Illuminate\Cookie\Middleware\AddQueuedCookiesToResponse |
|        |          |                               |                              |                                                                   | Illuminate\Session\Middleware\StartSession              |
|        |          |                               |                              |                                                                   | Illuminate\View\Middleware\ShareErrorsFromSession       |
|        |          |                               |                              |                                                                   | App\Http\Middleware\VerifyCsrfToken                     |
|        |          |                               |                              |                                                                   | Illuminate\Routing\Middleware\SubstituteBindings        |
|        | GET|HEAD | _debugbar/assets/javascript   | debugbar.assets.js           | Barryvdh\Debugbar\Controllers\AssetController@js                  | Barryvdh\Debugbar\Middleware\DebugbarEnabled            |
|        |          |                               |                              |                                                                   | Closure                                                 |
|        | GET|HEAD | _debugbar/assets/stylesheets  | debugbar.assets.css          | Barryvdh\Debugbar\Controllers\AssetController@css                 | Barryvdh\Debugbar\Middleware\DebugbarEnabled            |
|        |          |                               |                              |                                                                   | Closure                                                 |
|        | DELETE   | _debugbar/cache/{key}/{tags?} | debugbar.cache.delete        | Barryvdh\Debugbar\Controllers\CacheController@delete              | Barryvdh\Debugbar\Middleware\DebugbarEnabled            |
|        |          |                               |                              |                                                                   | Closure                                                 |
|        | GET|HEAD | _debugbar/clockwork/{id}      | debugbar.clockwork           | Barryvdh\Debugbar\Controllers\OpenHandlerController@clockwork     | Barryvdh\Debugbar\Middleware\DebugbarEnabled            |
|        |          |                               |                              |                                                                   | Closure                                                 |
|        | GET|HEAD | _debugbar/open                | debugbar.openhandler         | Barryvdh\Debugbar\Controllers\OpenHandlerController@handle        | Barryvdh\Debugbar\Middleware\DebugbarEnabled            |
|        |          |                               |                              |                                                                   | Closure                                                 |
|        | GET|HEAD | _debugbar/telescope/{id}      | debugbar.telescope           | Barryvdh\Debugbar\Controllers\TelescopeController@show            | Barryvdh\Debugbar\Middleware\DebugbarEnabled            |
|        |          |                               |                              |                                                                   | Closure                                                 |
|        | GET|HEAD | admin/approve                 | admin.document.approve       | App\Modules\Document\Controllers\DocumentController@approve       | App\Http\Middleware\EncryptCookies                      |
|        |          |                               |                              |                                                                   | Illuminate\Cookie\Middleware\AddQueuedCookiesToResponse |
|        |          |                               |                              |                                                                   | Illuminate\Session\Middleware\StartSession              |
|        |          |                               |                              |                                                                   | Illuminate\View\Middleware\ShareErrorsFromSession       |
|        |          |                               |                              |                                                                   | App\Http\Middleware\VerifyCsrfToken                     |
|        |          |                               |                              |                                                                   | Illuminate\Routing\Middleware\SubstituteBindings        |
|        |          |                               |                              |                                                                   | App\Http\Middleware\CheckPermissionsMiddleware          |
|        | GET|HEAD | admin/complete                | admin.document.complete      | App\Modules\Document\Controllers\DocumentController@complete      | App\Http\Middleware\EncryptCookies                      |
|        |          |                               |                              |                                                                   | Illuminate\Cookie\Middleware\AddQueuedCookiesToResponse |
|        |          |                               |                              |                                                                   | Illuminate\Session\Middleware\StartSession              |
|        |          |                               |                              |                                                                   | Illuminate\View\Middleware\ShareErrorsFromSession       |
|        |          |                               |                              |                                                                   | App\Http\Middleware\VerifyCsrfToken                     |
|        |          |                               |                              |                                                                   | Illuminate\Routing\Middleware\SubstituteBindings        |
|        |          |                               |                              |                                                                   | App\Http\Middleware\CheckPermissionsMiddleware          |
|        | GET|HEAD | admin/dashboard               | admin.dashboard              | App\Modules\Dashboard\Controllers\DashboardController@dashboard   | App\Http\Middleware\EncryptCookies                      |
|        |          |                               |                              |                                                                   | Illuminate\Cookie\Middleware\AddQueuedCookiesToResponse |
|        |          |                               |                              |                                                                   | Illuminate\Session\Middleware\StartSession              |
|        |          |                               |                              |                                                                   | Illuminate\View\Middleware\ShareErrorsFromSession       |
|        |          |                               |                              |                                                                   | App\Http\Middleware\VerifyCsrfToken                     |
|        |          |                               |                              |                                                                   | Illuminate\Routing\Middleware\SubstituteBindings        |
|        | GET|HEAD | admin/deny                    | admin.document.deny          | App\Modules\Document\Controllers\DocumentController@deny          | App\Http\Middleware\EncryptCookies                      |
|        |          |                               |                              |                                                                   | Illuminate\Cookie\Middleware\AddQueuedCookiesToResponse |
|        |          |                               |                              |                                                                   | Illuminate\Session\Middleware\StartSession              |
|        |          |                               |                              |                                                                   | Illuminate\View\Middleware\ShareErrorsFromSession       |
|        |          |                               |                              |                                                                   | App\Http\Middleware\VerifyCsrfToken                     |
|        |          |                               |                              |                                                                   | Illuminate\Routing\Middleware\SubstituteBindings        |
|        |          |                               |                              |                                                                   | App\Http\Middleware\CheckPermissionsMiddleware          |
|        | GET|HEAD | admin/department_list         | admin.department.list        | App\Modules\Department\Controllers\DepartmentController@list      | App\Http\Middleware\EncryptCookies                      |
|        |          |                               |                              |                                                                   | Illuminate\Cookie\Middleware\AddQueuedCookiesToResponse |
|        |          |                               |                              |                                                                   | Illuminate\Session\Middleware\StartSession              |
|        |          |                               |                              |                                                                   | Illuminate\View\Middleware\ShareErrorsFromSession       |
|        |          |                               |                              |                                                                   | App\Http\Middleware\VerifyCsrfToken                     |
|        |          |                               |                              |                                                                   | Illuminate\Routing\Middleware\SubstituteBindings        |
|        | POST     | admin/document                | admin.document.store         | App\Modules\Document\Controllers\DocumentController@store         | App\Http\Middleware\EncryptCookies                      |
|        |          |                               |                              |                                                                   | Illuminate\Cookie\Middleware\AddQueuedCookiesToResponse |
|        |          |                               |                              |                                                                   | Illuminate\Session\Middleware\StartSession              |
|        |          |                               |                              |                                                                   | Illuminate\View\Middleware\ShareErrorsFromSession       |
|        |          |                               |                              |                                                                   | App\Http\Middleware\VerifyCsrfToken                     |
|        |          |                               |                              |                                                                   | Illuminate\Routing\Middleware\SubstituteBindings        |
|        |          |                               |                              |                                                                   | App\Http\Middleware\CheckPermissionsMiddleware          |
|        | GET|HEAD | admin/document/create         | admin.document.create        | App\Modules\Document\Controllers\DocumentController@create        | App\Http\Middleware\EncryptCookies                      |
|        |          |                               |                              |                                                                   | Illuminate\Cookie\Middleware\AddQueuedCookiesToResponse |
|        |          |                               |                              |                                                                   | Illuminate\Session\Middleware\StartSession              |
|        |          |                               |                              |                                                                   | Illuminate\View\Middleware\ShareErrorsFromSession       |
|        |          |                               |                              |                                                                   | App\Http\Middleware\VerifyCsrfToken                     |
|        |          |                               |                              |                                                                   | Illuminate\Routing\Middleware\SubstituteBindings        |
|        |          |                               |                              |                                                                   | App\Http\Middleware\CheckPermissionsMiddleware          |
|        | GET|HEAD | admin/document_list           | admin.document.document_list | App\Modules\Document\Controllers\DocumentController@document_list | App\Http\Middleware\EncryptCookies                      |
|        |          |                               |                              |                                                                   | Illuminate\Cookie\Middleware\AddQueuedCookiesToResponse |
|        |          |                               |                              |                                                                   | Illuminate\Session\Middleware\StartSession              |
|        |          |                               |                              |                                                                   | Illuminate\View\Middleware\ShareErrorsFromSession       |
|        |          |                               |                              |                                                                   | App\Http\Middleware\VerifyCsrfToken                     |
|        |          |                               |                              |                                                                   | Illuminate\Routing\Middleware\SubstituteBindings        |
|        |          |                               |                              |                                                                   | App\Http\Middleware\CheckPermissionsMiddleware          |
|        | GET|HEAD | admin/process                 | admin.document.process       | App\Modules\Document\Controllers\DocumentController@process       | App\Http\Middleware\EncryptCookies                      |
|        |          |                               |                              |                                                                   | Illuminate\Cookie\Middleware\AddQueuedCookiesToResponse |
|        |          |                               |                              |                                                                   | Illuminate\Session\Middleware\StartSession              |
|        |          |                               |                              |                                                                   | Illuminate\View\Middleware\ShareErrorsFromSession       |
|        |          |                               |                              |                                                                   | App\Http\Middleware\VerifyCsrfToken                     |
|        |          |                               |                              |                                                                   | Illuminate\Routing\Middleware\SubstituteBindings        |
|        |          |                               |                              |                                                                   | App\Http\Middleware\CheckPermissionsMiddleware          |
|        | GET|HEAD | admin/regain                  | admin.document.regain        | App\Modules\Document\Controllers\DocumentController@regain        | App\Http\Middleware\EncryptCookies                      |
|        |          |                               |                              |                                                                   | Illuminate\Cookie\Middleware\AddQueuedCookiesToResponse |
|        |          |                               |                              |                                                                   | Illuminate\Session\Middleware\StartSession              |
|        |          |                               |                              |                                                                   | Illuminate\View\Middleware\ShareErrorsFromSession       |
|        |          |                               |                              |                                                                   | App\Http\Middleware\VerifyCsrfToken                     |
|        |          |                               |                              |                                                                   | Illuminate\Routing\Middleware\SubstituteBindings        |
|        |          |                               |                              |                                                                   | App\Http\Middleware\CheckPermissionsMiddleware          |
|        | GET|HEAD | admin/user_list               | admin.user.list              | App\Modules\User\Controllers\UserController@list                  | App\Http\Middleware\EncryptCookies                      |
|        |          |                               |                              |                                                                   | Illuminate\Cookie\Middleware\AddQueuedCookiesToResponse |
|        |          |                               |                              |                                                                   | Illuminate\Session\Middleware\StartSession              |
|        |          |                               |                              |                                                                   | Illuminate\View\Middleware\ShareErrorsFromSession       |
|        |          |                               |                              |                                                                   | App\Http\Middleware\VerifyCsrfToken                     |
|        |          |                               |                              |                                                                   | Illuminate\Routing\Middleware\SubstituteBindings        |
|        | POST     | login                         | admin.login                  | App\Modules\User\Controllers\UserController@login                 | App\Http\Middleware\EncryptCookies                      |
|        |          |                               |                              |                                                                   | Illuminate\Cookie\Middleware\AddQueuedCookiesToResponse |
|        |          |                               |                              |                                                                   | Illuminate\Session\Middleware\StartSession              |
|        |          |                               |                              |                                                                   | Illuminate\View\Middleware\ShareErrorsFromSession       |
|        |          |                               |                              |                                                                   | App\Http\Middleware\VerifyCsrfToken                     |
|        |          |                               |                              |                                                                   | Illuminate\Routing\Middleware\SubstituteBindings        |
|        | POST     | logout                        | admin.logout                 | App\Modules\User\Controllers\UserController@logout                | App\Http\Middleware\EncryptCookies                      |
|        |          |                               |                              |                                                                   | Illuminate\Cookie\Middleware\AddQueuedCookiesToResponse |
|        |          |                               |                              |                                                                   | Illuminate\Session\Middleware\StartSession              |
|        |          |                               |                              |                                                                   | Illuminate\View\Middleware\ShareErrorsFromSession       |
|        |          |                               |                              |                                                                   | App\Http\Middleware\VerifyCsrfToken                     |
|        |          |                               |                              |                                                                   | Illuminate\Routing\Middleware\SubstituteBindings        |
+--------+----------+-------------------------------+------------------------------+-------------------------------------------------------------------+---------------------------------------------------------+
+--------+----------+-------------------------------+------------------------------+-------------------------------------------------------------------+---------------------------------------------------------+
| Domain | Method   | URI                           | Name                         | Action                                                            | Middleware                                              |
+--------+----------+-------------------------------+------------------------------+-------------------------------------------------------------------+---------------------------------------------------------+
|        | GET|HEAD | /                             | admin.index                  | App\Modules\User\Controllers\UserController@index                 | App\Http\Middleware\EncryptCookies                      |
|        |          |                               |                              |                                                                   | Illuminate\Cookie\Middleware\AddQueuedCookiesToResponse |
|        |          |                               |                              |                                                                   | Illuminate\Session\Middleware\StartSession              |
|        |          |                               |                              |                                                                   | Illuminate\View\Middleware\ShareErrorsFromSession       |
|        |          |                               |                              |                                                                   | App\Http\Middleware\VerifyCsrfToken                     |
|        |          |                               |                              |                                                                   | Illuminate\Routing\Middleware\SubstituteBindings        |
|        | GET|HEAD | _debugbar/assets/javascript   | debugbar.assets.js           | Barryvdh\Debugbar\Controllers\AssetController@js                  | Barryvdh\Debugbar\Middleware\DebugbarEnabled            |
|        |          |                               |                              |                                                                   | Closure                                                 |
|        | GET|HEAD | _debugbar/assets/stylesheets  | debugbar.assets.css          | Barryvdh\Debugbar\Controllers\AssetController@css                 | Barryvdh\Debugbar\Middleware\DebugbarEnabled            |
|        |          |                               |                              |                                                                   | Closure                                                 |
|        | DELETE   | _debugbar/cache/{key}/{tags?} | debugbar.cache.delete        | Barryvdh\Debugbar\Controllers\CacheController@delete              | Barryvdh\Debugbar\Middleware\DebugbarEnabled            |
|        |          |                               |                              |                                                                   | Closure                                                 |
|        | GET|HEAD | _debugbar/clockwork/{id}      | debugbar.clockwork           | Barryvdh\Debugbar\Controllers\OpenHandlerController@clockwork     | Barryvdh\Debugbar\Middleware\DebugbarEnabled            |
|        |          |                               |                              |                                                                   | Closure                                                 |
|        | GET|HEAD | _debugbar/open                | debugbar.openhandler         | Barryvdh\Debugbar\Controllers\OpenHandlerController@handle        | Barryvdh\Debugbar\Middleware\DebugbarEnabled            |
|        |          |                               |                              |                                                                   | Closure                                                 |
|        | GET|HEAD | _debugbar/telescope/{id}      | debugbar.telescope           | Barryvdh\Debugbar\Controllers\TelescopeController@show            | Barryvdh\Debugbar\Middleware\DebugbarEnabled            |
|        |          |                               |                              |                                                                   | Closure                                                 |
|        | GET|HEAD | admin/approve                 | admin.document.approve       | App\Modules\Document\Controllers\DocumentController@approve       | App\Http\Middleware\EncryptCookies                      |
|        |          |                               |                              |                                                                   | Illuminate\Cookie\Middleware\AddQueuedCookiesToResponse |
|        |          |                               |                              |                                                                   | Illuminate\Session\Middleware\StartSession              |
|        |          |                               |                              |                                                                   | Illuminate\View\Middleware\ShareErrorsFromSession       |
|        |          |                               |                              |                                                                   | App\Http\Middleware\VerifyCsrfToken                     |
|        |          |                               |                              |                                                                   | Illuminate\Routing\Middleware\SubstituteBindings        |
|        |          |                               |                              |                                                                   | App\Http\Middleware\CheckPermissionsMiddleware          |
|        | GET|HEAD | admin/complete                | admin.document.complete      | App\Modules\Document\Controllers\DocumentController@complete      | App\Http\Middleware\EncryptCookies                      |
|        |          |                               |                              |                                                                   | Illuminate\Cookie\Middleware\AddQueuedCookiesToResponse |
|        |          |                               |                              |                                                                   | Illuminate\Session\Middleware\StartSession              |
|        |          |                               |                              |                                                                   | Illuminate\View\Middleware\ShareErrorsFromSession       |
|        |          |                               |                              |                                                                   | App\Http\Middleware\VerifyCsrfToken                     |
|        |          |                               |                              |                                                                   | Illuminate\Routing\Middleware\SubstituteBindings        |
|        |          |                               |                              |                                                                   | App\Http\Middleware\CheckPermissionsMiddleware          |
|        | GET|HEAD | admin/dashboard               | admin.dashboard              | App\Modules\Dashboard\Controllers\DashboardController@dashboard   | App\Http\Middleware\EncryptCookies                      |
|        |          |                               |                              |                                                                   | Illuminate\Cookie\Middleware\AddQueuedCookiesToResponse |
|        |          |                               |                              |                                                                   | Illuminate\Session\Middleware\StartSession              |
|        |          |                               |                              |                                                                   | Illuminate\View\Middleware\ShareErrorsFromSession       |
|        |          |                               |                              |                                                                   | App\Http\Middleware\VerifyCsrfToken                     |
|        |          |                               |                              |                                                                   | Illuminate\Routing\Middleware\SubstituteBindings        |
|        | GET|HEAD | admin/deny                    | admin.document.deny          | App\Modules\Document\Controllers\DocumentController@deny          | App\Http\Middleware\EncryptCookies                      |
|        |          |                               |                              |                                                                   | Illuminate\Cookie\Middleware\AddQueuedCookiesToResponse |
|        |          |                               |                              |                                                                   | Illuminate\Session\Middleware\StartSession              |
|        |          |                               |                              |                                                                   | Illuminate\View\Middleware\ShareErrorsFromSession       |
|        |          |                               |                              |                                                                   | App\Http\Middleware\VerifyCsrfToken                     |
|        |          |                               |                              |                                                                   | Illuminate\Routing\Middleware\SubstituteBindings        |
|        |          |                               |                              |                                                                   | App\Http\Middleware\CheckPermissionsMiddleware          |
|        | GET|HEAD | admin/department_list         | admin.department.list        | App\Modules\Department\Controllers\DepartmentController@list      | App\Http\Middleware\EncryptCookies                      |
|        |          |                               |                              |                                                                   | Illuminate\Cookie\Middleware\AddQueuedCookiesToResponse |
|        |          |                               |                              |                                                                   | Illuminate\Session\Middleware\StartSession              |
|        |          |                               |                              |                                                                   | Illuminate\View\Middleware\ShareErrorsFromSession       |
|        |          |                               |                              |                                                                   | App\Http\Middleware\VerifyCsrfToken                     |
|        |          |                               |                              |                                                                   | Illuminate\Routing\Middleware\SubstituteBindings        |
|        | POST     | admin/document                | admin.document.store         | App\Modules\Document\Controllers\DocumentController@store         | App\Http\Middleware\EncryptCookies                      |
|        |          |                               |                              |                                                                   | Illuminate\Cookie\Middleware\AddQueuedCookiesToResponse |
|        |          |                               |                              |                                                                   | Illuminate\Session\Middleware\StartSession              |
|        |          |                               |                              |                                                                   | Illuminate\View\Middleware\ShareErrorsFromSession       |
|        |          |                               |                              |                                                                   | App\Http\Middleware\VerifyCsrfToken                     |
|        |          |                               |                              |                                                                   | Illuminate\Routing\Middleware\SubstituteBindings        |
|        |          |                               |                              |                                                                   | App\Http\Middleware\CheckPermissionsMiddleware          |
|        | GET|HEAD | admin/document/create         | admin.document.create        | App\Modules\Document\Controllers\DocumentController@create        | App\Http\Middleware\EncryptCookies                      |
|        |          |                               |                              |                                                                   | Illuminate\Cookie\Middleware\AddQueuedCookiesToResponse |
|        |          |                               |                              |                                                                   | Illuminate\Session\Middleware\StartSession              |
|        |          |                               |                              |                                                                   | Illuminate\View\Middleware\ShareErrorsFromSession       |
|        |          |                               |                              |                                                                   | App\Http\Middleware\VerifyCsrfToken                     |
|        |          |                               |                              |                                                                   | Illuminate\Routing\Middleware\SubstituteBindings        |
|        |          |                               |                              |                                                                   | App\Http\Middleware\CheckPermissionsMiddleware          |
|        | GET|HEAD | admin/document_list           | admin.document.document_list | App\Modules\Document\Controllers\DocumentController@document_list | App\Http\Middleware\EncryptCookies                      |
|        |          |                               |                              |                                                                   | Illuminate\Cookie\Middleware\AddQueuedCookiesToResponse |
|        |          |                               |                              |                                                                   | Illuminate\Session\Middleware\StartSession              |
|        |          |                               |                              |                                                                   | Illuminate\View\Middleware\ShareErrorsFromSession       |
|        |          |                               |                              |                                                                   | App\Http\Middleware\VerifyCsrfToken                     |
|        |          |                               |                              |                                                                   | Illuminate\Routing\Middleware\SubstituteBindings        |
|        |          |                               |                              |                                                                   | App\Http\Middleware\CheckPermissionsMiddleware          |
|        | GET|HEAD | admin/process                 | admin.document.process       | App\Modules\Document\Controllers\DocumentController@process       | App\Http\Middleware\EncryptCookies                      |
|        |          |                               |                              |                                                                   | Illuminate\Cookie\Middleware\AddQueuedCookiesToResponse |
|        |          |                               |                              |                                                                   | Illuminate\Session\Middleware\StartSession              |
|        |          |                               |                              |                                                                   | Illuminate\View\Middleware\ShareErrorsFromSession       |
|        |          |                               |                              |                                                                   | App\Http\Middleware\VerifyCsrfToken                     |
|        |          |                               |                              |                                                                   | Illuminate\Routing\Middleware\SubstituteBindings        |
|        |          |                               |                              |                                                                   | App\Http\Middleware\CheckPermissionsMiddleware          |
|        | GET|HEAD | admin/regain                  | admin.document.regain        | App\Modules\Document\Controllers\DocumentController@regain        | App\Http\Middleware\EncryptCookies                      |
|        |          |                               |                              |                                                                   | Illuminate\Cookie\Middleware\AddQueuedCookiesToResponse |
|        |          |                               |                              |                                                                   | Illuminate\Session\Middleware\StartSession              |
|        |          |                               |                              |                                                                   | Illuminate\View\Middleware\ShareErrorsFromSession       |
|        |          |                               |                              |                                                                   | App\Http\Middleware\VerifyCsrfToken                     |
|        |          |                               |                              |                                                                   | Illuminate\Routing\Middleware\SubstituteBindings        |
|        |          |                               |                              |                                                                   | App\Http\Middleware\CheckPermissionsMiddleware          |
|        | GET|HEAD | admin/user_list               | admin.user.list              | App\Modules\User\Controllers\UserController@list                  | App\Http\Middleware\EncryptCookies                      |
|        |          |                               |                              |                                                                   | Illuminate\Cookie\Middleware\AddQueuedCookiesToResponse |
|        |          |                               |                              |                                                                   | Illuminate\Session\Middleware\StartSession              |
|        |          |                               |                              |                                                                   | Illuminate\View\Middleware\ShareErrorsFromSession       |
|        |          |                               |                              |                                                                   | App\Http\Middleware\VerifyCsrfToken                     |
|        |          |                               |                              |                                                                   | Illuminate\Routing\Middleware\SubstituteBindings        |
|        | POST     | login                         | admin.login                  | App\Modules\User\Controllers\UserController@login                 | App\Http\Middleware\EncryptCookies                      |
|        |          |                               |                              |                                                                   | Illuminate\Cookie\Middleware\AddQueuedCookiesToResponse |
|        |          |                               |                              |                                                                   | Illuminate\Session\Middleware\StartSession              |
|        |          |                               |                              |                                                                   | Illuminate\View\Middleware\ShareErrorsFromSession       |
|        |          |                               |                              |                                                                   | App\Http\Middleware\VerifyCsrfToken                     |
|        |          |                               |                              |                                                                   | Illuminate\Routing\Middleware\SubstituteBindings        |
|        | POST     | logout                        | admin.logout                 | App\Modules\User\Controllers\UserController@logout                | App\Http\Middleware\EncryptCookies                      |
|        |          |                               |                              |                                                                   | Illuminate\Cookie\Middleware\AddQueuedCookiesToResponse |
|        |          |                               |                              |                                                                   | Illuminate\Session\Middleware\StartSession              |
|        |          |                               |                              |                                                                   | Illuminate\View\Middleware\ShareErrorsFromSession       |
|        |          |                               |                              |                                                                   | App\Http\Middleware\VerifyCsrfToken                     |
|        |          |                               |                              |                                                                   | Illuminate\Routing\Middleware\SubstituteBindings        |
+--------+----------+-------------------------------+------------------------------+-------------------------------------------------------------------+---------------------------------------------------------+
